0 0.000000
1 0.000000
2 0.000000
3 0.000000
4 0.000000
5 0.000000
6 0.000000
7 0.000000
8 0.000000
9 0.000000
10 0.000000
11 0.000000
12 0.000000
13 0.000000
14 0.000000
15 0.910000
16 3.420000
17 6.940000
18 11.670000
19 17.070000
20 22.530000
21 30.780000
22 40.580000
23 54.940000
24 70.720000
25 87.100000
26 103.960000
27 124.340000
28 147.670000
29 174.060000
30 219.710000
31 269.140000
32 319.380000
33 370.500000
34 422.610000
35 477.800000

